<?xml version="1.0" standalone="no"?>
<!DOCTYPE svg PUBLIC "-//W3C//DTD SVG 1.1//EN" "http://www.w3.org/Graphics/SVG/1.1/DTD/svg11.dtd" >
<svg xmlns="http://www.w3.org/2000/svg">
<metadata>Generated by IcoMoon</metadata>
<defs>
<font id="icomoon" horiz-adv-x="1024">
<font-face units-per-em="1024" ascent="960" descent="-64" />
<missing-glyph horiz-adv-x="1024" />
<glyph unicode="&#x20;" d="" horiz-adv-x="512" />
<glyph unicode="&#xe094;" d="M426.667 768q17.667 0 30.167-12.5t12.5-30.167q0-18-12.667-30.333l-225.667-225.667h665q17.667 0 30.167-12.5t12.5-30.167-12.5-30.167-30.167-12.5h-665l225.667-225.667q12.667-12.333 12.667-30.333 0-17.667-12.5-30.167t-30.167-12.5q-18 0-30.333 12.333l-298.667 298.667q-12.333 13-12.333 30.333t12.333 30.333l298.667 298.667q12.667 12.333 30.333 12.333z" />
<glyph unicode="&#xe095;" d="M597.333 768q18 0 30.333-12.333l298.667-298.667q12.333-12.333 12.333-30.333t-12.333-30.333l-298.667-298.667q-12.333-12.333-30.333-12.333-18.333 0-30.5 12.167t-12.167 30.5q0 18 12.333 30.333l226 225.667h-665q-17.667 0-30.167 12.5t-12.5 30.167 12.5 30.167 30.167 12.5h665l-226 225.667q-12.333 12.333-12.333 30.333 0 18.333 12.167 30.5t30.5 12.167z" />
<glyph unicode="&#xe096;" d="M512 853.334q18 0 30.333-12.333l298.667-298.667q12.333-12.333 12.333-30.333 0-18.333-12.167-30.5t-30.5-12.167q-18 0-30.333 12.333l-225.667 226v-665q0-17.667-12.5-30.167t-30.167-12.5-30.167 12.5-12.5 30.167v665l-225.667-226q-12.333-12.333-30.333-12.333-18.333 0-30.5 12.167t-12.167 30.5q0 18 12.333 30.333l298.667 298.667q12.333 12.333 30.333 12.333z" />
<glyph unicode="&#xe097;" d="M512 853.334q17.667 0 30.167-12.5t12.5-30.167v-665l225.667 226q12.333 12.333 30.333 12.333 18.333 0 30.5-12.167t12.167-30.5q0-18-12.333-30.333l-298.667-298.667q-12.333-12.333-30.333-12.333t-30.333 12.333l-298.667 298.667q-12.333 12.333-12.333 30.333 0 18.333 12.167 30.5t30.5 12.167q18 0 30.333-12.333l225.667-226v665q0 17.667 12.5 30.167t30.167 12.5z" />
<glyph unicode="&#xe117;" d="M810.667 768q18.333 0 30.5-12.167t12.167-30.5q0-18-12.333-30.333l-268.667-268.333 268.667-268.333q12.333-12.333 12.333-30.333 0-18.333-12.167-30.5t-30.5-12.167q-18 0-30.333 12.333l-268.333 268.667-268.333-268.667q-12.333-12.333-30.333-12.333-18.333 0-30.5 12.167t-12.167 30.5q0 18 12.333 30.333l268.667 268.333-268.667 268.333q-12.333 12.333-12.333 30.333 0 18.333 12.167 30.5t30.5 12.167q18 0 30.333-12.333l268.333-268.667 268.333 268.667q12.333 12.333 30.333 12.333z" />
<glyph unicode="&#xe600;" d="M704 320c-64-64-64-128-128-128s-128 64-192 128-128 128-128 192 64 64 128 128-128 256-192 256-192-192-192-192c0-128 131.5-387.5 256-512s384-256 512-256c0 0 192 128 192 192s-192 256-256 192z" />
<glyph unicode="&#xe601;" d="M995.828-35.828c-37.566-37.562-98.452-37.562-136.016 0l-169.726 169.728c-69.778-44.732-152.262-71.436-241.32-71.436-247.83 0-448.766 200.908-448.766 448.768s200.936 448.768 448.766 448.768c247.862 0 448.768-200.906 448.768-448.768 0-89.058-26.704-171.542-71.436-241.35l169.728-169.696c37.564-37.564 37.564-98.448 0.002-136.014zM448.766 831.78c-177.022 0-320.548-143.526-320.548-320.548 0-177.052 143.526-320.548 320.548-320.548 177.054 0 320.548 143.496 320.548 320.548 0 177.022-143.494 320.548-320.548 320.548zM512.876 318.904h-128.218v128.218h-128.218v128.218h128.218v128.22h128.218v-128.22h128.22v-128.218h-128.22v-128.218z" />
<glyph unicode="&#xe602;" d="M576 512v192h-128v-320h256v128zM512 960c-282.75 0-512-229.25-512-512s229.25-512 512-512 512 229.25 512 512-229.25 512-512 512zM512 64c-212.062 0-384 171.938-384 384s171.938 384 384 384 384-171.938 384-384-171.938-384-384-384z" />
<glyph unicode="&#xe603;" d="M512 960c-212.062 0-384-171.938-384-384s384-640 384-640 384 427.938 384 640-171.938 384-384 384zM512 320c-141.376 0-256 114.624-256 256s114.624 256 256 256 256-114.624 256-256-114.624-256-256-256zM512 704c-70.688 0-128-57.312-128-128s57.312-128 128-128 128 57.312 128 128-57.312 128-128 128z" />
<glyph unicode="&#xe604;" d="M778.189 512h-215.040v215.040c0 28.262-22.886 30.72-51.2 30.72-28.262 0-51.2-2.406-51.2-30.72v-215.040h-214.989c-28.314 0-30.72-22.938-30.72-51.2s2.406-51.2 30.72-51.2h214.989v-215.040c0-28.262 22.938-30.72 51.2-30.72 28.314 0 51.2 2.458 51.2 30.72v215.040h215.040c28.314 0 30.771 22.938 30.771 51.2s-2.458 51.2-30.771 51.2z" />
<glyph unicode="&#xe605;" d="M585.574 741.581c-21.402-20.89-230.502-240.435-230.502-240.435-11.418-11.162-17.101-25.754-17.101-40.346s5.683-29.184 17.101-40.346c0 0 209.101-219.546 230.502-240.384 21.402-20.89 59.904-22.323 82.739 0 22.784 22.272 24.576 53.35-0.051 80.64l-191.846 200.090 191.846 200.090c24.627 27.341 22.835 58.419 0.051 80.691-22.886 22.272-61.389 20.89-82.739 0z" />
<glyph unicode="&#xe606;" d="M792.73 534.374c-20.838-21.402-240.384-230.554-240.384-230.554-11.162-11.418-25.754-17.101-40.346-17.101-14.643 0-29.235 5.683-40.346 17.101 0 0-219.546 209.152-240.435 230.554-20.838 21.402-22.272 59.853 0 82.739 22.323 22.835 53.402 24.627 80.691 0l200.090-191.898 200.038 191.846c27.341 24.627 58.47 22.835 80.691 0 22.323-22.835 20.941-61.338 0-82.688z" />
<glyph unicode="&#xe607;" d="M792.73 387.226c-20.838 21.402-240.384 230.502-240.384 230.502-11.162 11.418-25.754 17.152-40.346 17.152-14.643 0-29.235-5.734-40.346-17.152 0 0-219.546-209.101-240.435-230.502-20.838-21.402-22.272-59.904 0-82.739 22.323-22.784 53.402-24.627 80.691 0l200.090 191.846 200.038-191.846c27.341-24.627 58.47-22.784 80.691 0 22.323 22.886 20.941 61.389 0 82.739z" />
<glyph unicode="&#xe608;" d="M438.426 741.581c21.402-20.89 230.502-240.435 230.502-240.435 11.469-11.162 17.152-25.754 17.152-40.346s-5.683-29.184-17.152-40.346c0 0-209.101-219.546-230.502-240.384-21.402-20.89-59.853-22.323-82.739 0-22.835 22.272-24.627 53.35 0 80.64l191.898 200.090-191.846 200.090c-24.627 27.341-22.835 58.419 0 80.691s61.338 20.89 82.688 0z" />
<glyph unicode="&#xe609;" d="M737.229 80.998c13.722-13.875 13.722-36.25 0-50.125s-35.891-13.875-49.613 0l-400.896 404.838c-13.722 13.875-13.722 36.301 0 50.125l400.896 404.89c13.722 13.875 35.891 13.875 49.613 0s13.722-36.25 0-50.125l-365.568-379.802 365.568-379.802z" />
<glyph unicode="&#xe60a;" d="M132.198 686.029c-13.875 13.722-36.301 13.722-50.125 0-13.824-13.67-13.824-35.891 0-49.613l404.89-400.896c13.875-13.722 36.25-13.722 50.125 0l404.89 400.896c13.824 13.722 13.875 35.891 0 49.613s-36.352 13.722-50.125 0.051l-379.853-365.619-379.802 365.568z" />
<glyph unicode="&#xe60b;" d="M891.802 235.571c13.875-13.722 36.301-13.722 50.125 0 13.875 13.722 13.875 35.891 0 49.613l-404.89 400.896c-13.824 13.722-36.25 13.722-50.074 0l-404.89-400.896c-13.824-13.722-13.875-35.891 0-49.613s36.25-13.722 50.125 0l379.802 365.619 379.802-365.619z" />
<glyph unicode="&#xe60c;" d="M512 952.32c-271.462 0-491.52-220.058-491.52-491.52s220.058-491.52 491.52-491.52 491.52 220.058 491.52 491.52-220.058 491.52-491.52 491.52zM628.378 612.659h-73.882c-8.704 0-18.432-11.52-18.432-26.829v-53.35h92.365v-76.083h-92.365v-228.403h-87.245v228.403h-79.053v76.032h79.053v44.749c0 64.205 44.544 116.378 105.677 116.378h73.882v-80.896z" />
<glyph unicode="&#xe60d;" d="M768 761.395h-146.227c-17.306 0-36.608-22.733-36.608-53.197v-105.574h182.835v-150.528h-182.835v-452.096h-172.646v452.045h-156.518v150.579h156.518v88.576c0 127.027 88.166 230.4 209.203 230.4h146.278v-160.205z" />
<glyph unicode="&#xe60e;" d="M1014.662 137.34c-0.004 0.004-0.008 0.008-0.012 0.010l-310.644 310.65 310.644 310.65c0.004 0.004 0.008 0.006 0.012 0.010 3.344 3.346 5.762 7.254 7.312 11.416 4.246 11.376 1.824 24.682-7.324 33.83l-146.746 146.746c-9.148 9.146-22.45 11.566-33.828 7.32-4.16-1.55-8.070-3.968-11.418-7.31 0-0.004-0.004-0.006-0.008-0.010l-310.648-310.652-310.648 310.65c-0.004 0.004-0.006 0.006-0.010 0.010-3.346 3.342-7.254 5.76-11.414 7.31-11.38 4.248-24.682 1.826-33.83-7.32l-146.748-146.748c-9.148-9.148-11.568-22.452-7.322-33.828 1.552-4.16 3.97-8.072 7.312-11.416 0.004-0.002 0.006-0.006 0.010-0.010l310.65-310.648-310.65-310.652c-0.002-0.004-0.006-0.006-0.008-0.010-3.342-3.346-5.76-7.254-7.314-11.414-4.248-11.376-1.826-24.682 7.322-33.83l146.748-146.746c9.15-9.148 22.452-11.568 33.83-7.322 4.16 1.552 8.070 3.97 11.416 7.312 0.002 0.004 0.006 0.006 0.010 0.010l310.648 310.65 310.648-310.65c0.004-0.002 0.008-0.006 0.012-0.008 3.348-3.344 7.254-5.762 11.414-7.314 11.378-4.246 24.684-1.826 33.828 7.322l146.746 146.748c9.148 9.148 11.57 22.454 7.324 33.83-1.552 4.16-3.97 8.068-7.314 11.414z" />
<glyph unicode="&#xe60f;" d="M995.828-35.828c-37.566-37.562-98.452-37.562-136.016 0l-169.726 169.728c-69.778-44.732-152.262-71.436-241.32-71.436-247.83 0-448.766 200.908-448.766 448.768s200.936 448.768 448.766 448.768c247.862 0 448.768-200.906 448.768-448.768 0-89.058-26.704-171.542-71.436-241.35l169.728-169.696c37.564-37.564 37.564-98.448 0.002-136.014zM448.766 831.78c-177.022 0-320.548-143.526-320.548-320.548 0-177.052 143.526-320.548 320.548-320.548 177.054 0 320.548 143.496 320.548 320.548 0 177.022-143.494 320.548-320.548 320.548zM512.876 318.904h-128.218v128.218h-128.218v128.218h128.218v128.22h128.218v-128.22h128.22v-128.218h-128.22v-128.218z" />
<glyph unicode="&#xe610;" d="M512.32 703.68h-128v-128h-128v-128h128v-128h128v128h128v128h-128v128zM1000.64 70.848l-184.896 184.896c50.688 72.576 80.64 160.704 80.64 255.936 0 247.424-200.64 448-448 448s-448-200.576-448-448c0-247.424 200.576-448 448-448 95.232 0 183.424 29.952 256 80.64l184.896-184.896c30.72-30.72 80.64-30.72 111.36 0s30.72 80.576 0 111.424zM448.32 191.616c-176.704 0-320 143.232-320 320s143.296 320 320 320c176.768 0 320-143.232 320-320 0.064-176.768-143.168-320-320-320z" />
<glyph unicode="&#xe611;" d="M1000.64 70.848l-184.896 184.896c50.688 72.576 80.64 160.704 80.64 255.936 0 247.424-200.64 448-448 448s-448-200.576-448-448c0-247.424 200.576-448 448-448 95.232 0 183.424 29.952 256 80.64l184.896-184.896c30.72-30.72 80.64-30.72 111.36 0s30.72 80.576 0 111.424zM448.32 191.616c-176.704 0-320 143.232-320 320s143.296 320 320 320c176.768 0 320-143.232 320-320 0.064-176.768-143.168-320-320-320zM256.32 447.68h384v128h-384v-128z" />
<glyph unicode="&#xe612;" d="M995.828-35.826c-37.566-37.564-98.45-37.564-136.016 0l-169.726 169.726c-69.776-44.764-152.26-71.434-241.318-71.434-247.83 0-448.768 200.908-448.768 448.768s200.938 448.766 448.768 448.766c247.862 0 448.768-200.904 448.768-448.766 0-89.028-26.704-171.542-71.436-241.352l169.728-169.726c37.562-37.564 37.562-98.418 0-135.982zM448.768 831.782c-177.022 0-320.548-143.494-320.548-320.546s143.526-320.548 320.548-320.548c177.052 0 320.548 143.496 320.548 320.548s-143.496 320.546-320.548 320.546z" />
<glyph unicode="&#xe613;" d="M995.828 100.188l-169.728 169.696c44.732 69.806 71.436 152.292 71.436 241.35 0 247.86-200.908 448.766-448.77 448.766-247.83 0-448.766-200.906-448.766-448.768s200.936-448.768 448.766-448.768c89.058 0 171.542 26.704 241.32 71.436l169.726-169.728c37.564-37.562 98.45-37.562 136.016 0 37.562 37.566 37.562 98.45 0 136.016zM448.766 190.684c-177.022 0-320.548 143.496-320.548 320.548 0 177.022 143.526 320.548 320.548 320.548 177.054 0 320.548-143.526 320.548-320.548 0-177.052-143.494-320.548-320.548-320.548zM256.438 447.124h384.658v128.218h-384.658v-128.218z" />
<glyph unicode="&#xe614;" d="M1000.64 70.848l-184.896 184.896c50.688 72.576 80.64 160.704 80.64 255.936 0 247.424-200.64 448-448 448s-448-200.576-448-448c0-247.424 200.576-448 448-448 95.232 0 183.424 29.952 256 80.64l184.896-184.896c30.72-30.72 80.64-30.72 111.36 0s30.72 80.576 0 111.424zM448.32 191.616c-176.704 0-320 143.232-320 320s143.296 320 320 320c176.768 0 320-143.232 320-320 0.064-176.768-143.168-320-320-320z" />
<glyph unicode="&#xe615;" d="M704 640h-89.003l55.168 55.168c16.683 16.683 16.683 43.648 0 60.331s-43.648 16.683-60.331 0l-158.165-158.165 158.165-158.165c8.32-8.32 19.243-12.501 30.165-12.501s21.845 4.181 30.165 12.501c16.683 16.683 16.683 43.648 0 60.331l-55.168 55.168h89.003c58.837 0 106.667-57.429 106.667-128s-57.429-128-128-128v0c-23.595 0-42.667-19.115-42.667-42.667s19.072-42.667 42.667-42.667v0c117.632 0 213.333 95.701 213.333 213.333s-86.144 213.333-192 213.333zM353.835 414.166c-16.683-16.683-16.683-43.648 0-60.331l55.168-55.168h-89.003c-58.837 0-106.667 57.429-106.667 128s57.429 128 128 128v0c23.595 0 42.667 19.115 42.667 42.667s-19.072 42.667-42.667 42.667v0c-117.632 0-213.333-95.701-213.333-213.333s86.144-213.333 192-213.333h89.003l-55.168-55.168c-16.683-16.683-16.683-43.648 0-60.331 8.32-8.32 19.243-12.501 30.165-12.501s21.845 4.181 30.165 12.501l158.165 158.165-158.165 158.165c-16.683 16.683-43.648 16.683-60.331 0z" />
<glyph unicode="&#xe616;" d="M960 179.264l-268.992 268.736 268.992 268.736-179.264 179.264-268.736-268.864-268.864 268.864-179.136-179.264 268.736-268.736-268.736-268.736 179.136-179.264 268.864 268.864 268.736-268.864z" />
<glyph unicode="&#xe617;" d="M1014.662 137.34c-0.004 0.004-0.008 0.008-0.012 0.010l-310.644 310.65 310.644 310.65c0.004 0.004 0.008 0.006 0.012 0.010 3.344 3.346 5.762 7.254 7.312 11.416 4.246 11.376 1.824 24.682-7.324 33.83l-146.746 146.746c-9.148 9.146-22.45 11.566-33.828 7.32-4.16-1.55-8.070-3.968-11.418-7.31 0-0.004-0.004-0.006-0.008-0.010l-310.648-310.652-310.648 310.65c-0.004 0.004-0.006 0.006-0.010 0.010-3.346 3.342-7.254 5.76-11.414 7.31-11.38 4.248-24.682 1.826-33.83-7.32l-146.748-146.748c-9.148-9.148-11.568-22.452-7.322-33.828 1.552-4.16 3.97-8.072 7.312-11.416 0.004-0.002 0.006-0.006 0.010-0.010l310.65-310.648-310.65-310.652c-0.002-0.004-0.006-0.006-0.008-0.010-3.342-3.346-5.76-7.254-7.314-11.414-4.248-11.376-1.826-24.682 7.322-33.83l146.748-146.746c9.15-9.148 22.452-11.568 33.83-7.322 4.16 1.552 8.070 3.97 11.416 7.312 0.002 0.004 0.006 0.006 0.010 0.010l310.648 310.65 310.648-310.65c0.004-0.002 0.008-0.006 0.012-0.008 3.348-3.344 7.254-5.762 11.414-7.314 11.378-4.246 24.684-1.826 33.828 7.322l146.746 146.748c9.148 9.148 11.57 22.454 7.324 33.83-1.552 4.16-3.97 8.068-7.314 11.414z" />
<glyph unicode="&#xe618;" d="M864 832l-480-480-224 224-160-160 384-384 640 640z" />
<glyph unicode="&#xe619;" d="M397.434 42.304l-397.868 391.6 197.378 194.27 200.49-197.332 429.62 422.852 197.378-194.27-626.998-617.12zM107.912 433.904l289.524-284.962 518.656 510.482-89.036 87.632-429.62-422.852-200.49 197.334-89.034-87.634z" />
<glyph unicode="&#xe61a;" d="M734.669 299.418l-141.21 161.382 141.21 161.382c24.013 24.013 24.013 62.925 0 86.886-24.013 23.962-62.925 23.962-86.886 0l-135.782-155.187-135.731 155.136c-24.013 24.013-62.925 24.013-86.886 0-23.962-24.013-23.962-62.925 0-86.886l141.158-161.331-141.21-161.382c-23.962-24.013-23.962-62.822 0-86.784 24.013-24.013 62.925-24.013 86.886 0l135.782 155.085 135.731-155.085c24.013-24.013 62.925-24.013 86.886 0s24.013 62.771 0.051 86.784z" />
<glyph unicode="&#xe61b;" d="M0 960l768-512-768-512z" horiz-adv-x="768" />
<glyph unicode="&#xe61c;" d="M960 512c-35.376 0-64-28.656-64-64v-384h-768v384c0 35.344-28.624 64-64 64s-64-28.656-64-64v-448c0-35.344 28.624-64 64-64h896c35.376 0 64 28.656 64 64v448c0 35.344-28.624 64-64 64zM576 512v391.818c0 31.026-28.624 56.182-64 56.182s-64-25.156-64-56.182v-391.818h-192l256-256 256 256h-192z" />
<glyph unicode="&#xe61d;" d="M990.208 279.347l-163.021 109.67h-100.506l174.080-133.53h-181.504c-5.222 0-9.882-2.662-12.288-6.81l-41.779-114.432h-306.381l-41.83 114.432c-2.304 4.147-7.066 6.81-12.288 6.81h-181.453l174.131 133.53h-100.557l-162.97-109.67c-24.269-14.49-38.758-47.923-32.256-74.189l28.723-157.389c6.502-26.317 35.379-47.872 64.051-47.872h835.226c28.774 0 57.6 21.555 64.102 47.872l28.723 157.389c6.605 26.317-7.936 59.699-32.205 74.189zM778.291 608.154h-169.011v262.144h-194.56v-262.144h-168.96l266.24-249.856 266.291 249.856z" />
<glyph unicode="&#xe61e;" d="M256 896h512v-128h-512zM960 704h-896c-35.2 0-64-28.8-64-64v-320c0-35.2 28.796-64 64-64h192v-256h512v256h192c35.2 0 64 28.8 64 64v320c0 35.2-28.8 64-64 64zM704 64h-384v320h384v-320zM974.4 608c0-25.626-20.774-46.4-46.398-46.4-25.626 0-46.402 20.774-46.402 46.4s20.776 46.4 46.402 46.4c25.626 0 46.398-20.774 46.398-46.4z" />
<glyph unicode="&#xe61f;" d="M128 32c0 53.019 42.981 96 96 96s96-42.981 96-96c0-53.019-42.981-96-96-96s-96 42.981-96 96zM768 32c0 53.019 42.981 96 96 96s96-42.981 96-96c0-53.019-42.981-96-96-96s-96 42.981-96 96zM960 448v384h-832c0 70.692-57.306 128-128 128v-64c35.29 0 64-28.71 64-64l48.074-412.054c-29.294-23.458-48.074-59.5-48.074-99.946 0-70.694 57.308-128 128-128h768v64h-768c-35.346 0-64 28.654-64 64 0 0.22 0.014 0.436 0.016 0.656l831.984 127.344z" />
<glyph unicode="&#xe620;" d="M847.218 384c35.2 0 71.912 27.692 81.582 61.538l92.836 324.926c9.67 33.844-11.218 61.536-46.418 61.536h-655.218c0 70.692-57.308 128-128 128h-192v-128h192v-544c0-53.020 42.98-96 96-96h608c35.346 0 64 28.654 64 64s-28.654 64-64 64h-576v64h527.218zM320 704h578.806l-54.858-192h-523.948v192zM384 16c0-44-36-80-80-80h-32c-44 0-80 36-80 80v32c0 44 36 80 80 80h32c44 0 80-36 80-80v-32zM960 16c0-44-36-80-80-80h-32c-44 0-80 36-80 80v32c0 44 36 80 80 80h32c44 0 80-36 80-80v-32z" />
<glyph unicode="&#xe621;" d="M977.582 765.538c-33.984 9.708-69.41-9.97-79.12-43.956l-5.022-17.582h-596.942l-8.992 71.938c-4.004 32.028-31.23 56.062-63.506 56.062h-160c-35.346 0-64-28.654-64-64s28.654-64 64-64h103.502l56.992-455.938c4.004-32.026 31.23-56.062 63.506-56.062h544c28.574 0 53.688 18.944 61.538 46.418l128 448c9.71 33.986-9.97 69.41-43.956 79.12zM512 448v64h127.996v-64h-127.996zM639.996 384v-64h-127.996v64h127.996zM512 576v64h127.996v-64h-127.996zM304.498 640h143.502v-64h-135.502l-8 64zM320.498 512h127.502v-64h-119.502l-8 64zM336.498 384h111.502v-64h-103.502l-8 64zM783.724 320h-79.728v64h98.014l-18.286-64zM820.296 448h-116.3v64h134.586l-18.286-64zM856.868 576h-152.872v64h171.158l-18.286-64zM256 32c0 53.019 42.981 96 96 96s96-42.981 96-96c0-53.019-42.981-96-96-96s-96 42.981-96 96zM640 32c0 53.019 42.981 96 96 96s96-42.981 96-96c0-53.019-42.981-96-96-96s-96 42.981-96 96z" />
<glyph unicode="&#xe622;" d="M286.704 80.998c-13.722-13.875-13.722-36.25 0-50.125s35.891-13.875 49.613 0l400.896 404.838c13.722 13.875 13.722 36.301 0 50.125l-400.896 404.89c-13.722 13.875-35.891 13.875-49.613 0s-13.722-36.25 0-50.125l365.568-379.802-365.568-379.802z" />
<glyph unicode="&#xe623;" d="M533.334 160c0 18.774-3.2 36.694-9.194 53.334h124.822c-5.762-16.64-8.962-34.56-8.962-53.334 0-88.342 71.658-160 160-160 88.32 0 160 71.658 160 160 0 88.32-71.68 160-160 160h-352c-23.466 0-42.666 19.2-42.666 42.666s19.2 42.666 42.666 42.666h366.934c38.614 0 71.872 22.634 87.018 55.466 5.782 12.376 116.288 264.322 116.288 264.322 2.986 6.848 5.76 13.654 5.76 21.546 0 23.466-19.2 42.666-42.666 42.666l-666.048 0.002-17.92 55.254c-8.3 29.652-31.552 51.412-62.7 51.412h-181.332c-29.44 0-53.334-23.894-53.334-53.334s23.894-53.332 53.334-53.332h112c18.986 0 34.986-12.374 40.534-29.226l90.026-460.138c-49.26-27.116-82.56-79.81-82.56-139.97 0-88.342 71.658-160 160-160 88.32 0 160 71.658 160 160zM426.666 160c0-29.44-23.894-53.334-53.334-53.334s-53.332 23.894-53.332 53.334 23.894 53.334 53.334 53.334 53.332-23.894 53.332-53.334zM853.334 160c0-29.44-23.894-53.334-53.334-53.334s-53.334 23.894-53.334 53.334 23.894 53.334 53.334 53.334 53.334-23.894 53.334-53.334z" />
<glyph unicode="&#xe624;" d="M341.333 725.334v-597.333l469.333 298.667z" />
<glyph unicode="&#xe625;" d="M256 384h128v128h-128v-128zM256 192h128v128h-128v-128zM320 960h-128v-128h128v128zM448 192h128v128h-128v-128zM448 384h128v128h-128v-128zM896 960v-128c0-35.328-28.608-64-64-64h-128c-35.392 0-64 28.672-64 64v128h-256v-128c0-35.328-28.608-64-64-64h-128c-35.392 0-64 28.672-64 64v128c-70.656 0-128-57.344-128-128v-768c0-70.656 57.344-128 128-128h768c70.656 0 128 57.344 128 128v768c0 70.656-57.344 128-128 128zM896 128c0-35.392-28.608-64-64-64h-640c-35.392 0-64 28.608-64 64v448c0 35.328 28.608 64 64 64h640c35.392 0 64-28.672 64-64v-448zM640 192h128v128h-128v-128zM640 384h128v128h-128v-128zM832 960h-128v-128h128v128z" />
<glyph unicode="&#xe626;" d="M853.333 682.667h-170.667v85.333l-85.333 85.333h-170.667l-85.333-85.333v-85.333h-170.667c-47.147 0-84.907-38.187-84.907-85.333l-0.427-469.333c0-47.147 38.187-85.333 85.333-85.333h682.667c47.147 0 85.333 38.187 85.333 85.333v469.333c0 47.147-38.187 85.333-85.333 85.333zM426.667 768h170.667v-85.333h-170.667v85.333zM512 128l-213.333 213.333h128v170.667h170.667v-170.667h128l-213.333-213.333z" />
<glyph unicode="&#xe627;" d="M501.334 277.974c-23.894 30.294-44.8 45.226-96.64 50.326-9.386 1.706-16.214 9.814-16.214 19.414 0 7.040 23.040 28.16 22.806 28.374 23.914 24.126 36.714 63.166 36.714 93.246 0 46.698-41.366 85.334-96 85.334-55.68 0-96-38.634-96-85.334 0-30.294 12.586-69.546 36.48-93.674 0 0 23.040-20.886 23.040-27.946 0-10.026-7.68-18.56-17.92-19.84-50.794-5.12-71.274-20.054-94.934-49.92-6.634-8.746-10.454-26.026-10.666-35.2v-40.106c0-17.706 14.698-32 32.854-32h254.294c18.154 0 32.854 14.294 32.854 32v40.106c-0.216 9.214-3.864 26.472-10.668 35.22zM757.334 512h-106.666c-29.44 0-53.334-23.894-53.334-53.334s23.894-53.334 53.334-53.334h106.666c29.44 0 53.334 23.894 53.334 53.334s-23.894 53.334-53.334 53.334zM757.334 320h-106.666c-29.44 0-53.334-23.894-53.334-53.334s23.894-53.334 53.334-53.334h106.666c29.44 0 53.334 23.894 53.334 53.334s-23.894 53.334-53.334 53.334zM0 64c0-47.146 38.186-85.334 85.334-85.334h853.334c47.146 0 85.334 38.186 85.334 85.334l-0.002 682.666c0 47.146-38.186 85.334-85.334 85.334h-256v38.4c0 26.026-20.906 46.934-46.932 46.934h-247.468c-26.026 0-46.932-20.908-46.932-46.934v-38.4h-256c-47.146 0-85.334-38.186-85.334-85.334v-682.666zM153.6 725.334h187.734v-38.4c0-26.026 20.906-46.934 46.934-46.934h247.466c26.026 0 46.934 20.906 46.934 46.934l-0.002 38.4h187.734c26.026 0 46.934-20.906 46.934-46.934v-546.134c0-26.026-20.906-46.934-46.934-46.934l-716.8 0.002c-26.026 0-46.934 20.906-46.934 46.932v546.134c0 26.026 20.908 46.934 46.934 46.934z" />
<glyph unicode="&#xe628;" d="M928 832h-832c-53.024 0-96-42.976-96-96v-576c0-52.992 42.976-96 96-96h832c53.024 0 96 43.008 96 96v576c0 53.024-42.976 96-96 96zM87.712 128.32l-23.392 23.424 263.968 263.936 23.392-23.424-263.968-263.936zM936.288 128.32l-263.968 263.936 23.392 23.424 263.968-263.936-23.392-23.424zM544 341.6v-21.6h-64v21.6l-415.904 385.6 40.704 40.704 407.2-377.536 407.2 377.536 40.704-40.704-415.904-385.6z" />
<glyph unicode="&#xe629;" d="M640 576l-192-320-127.040 92.672-0.96 3.328-7.552 2.912 5.888-4.32-190.336-158.592v-64h768v64l-96 288-160 96zM288 544c52.992 0 96 42.976 96 96s-43.008 96-96 96-96-42.976-96-96 43.008-96 96-96zM992 896h-960c-17.664 0-32-14.336-32-32v-832c0-17.696 14.336-32 32-32h960c17.696 0 32 14.304 32 32v832c0 17.664-14.304 32-32 32zM960 96c0-17.696-14.304-32-32-32h-832c-17.664 0-32 14.304-32 32v704c0 17.664 14.336 32 32 32h832c17.696 0 32-14.336 32-32v-704z" />
<glyph unicode="&#xe62a;" d="M992 768h-176l-48 96c0 17.664-14.304 32-32 32h-448c-17.696 0-32-14.336-32-32l-48-96h-176c-17.664 0-32-14.336-32-32v-704c0-17.696 14.336-32 32-32h960c17.696 0 32 14.304 32 32v704c0 17.664-14.304 32-32 32zM512 128c-141.376 0-256 114.624-256 256s114.624 256 256 256 256-114.624 256-256c0-141.376-114.624-256-256-256zM512 512c-70.688 0-128-57.312-128-128s57.312-128 128-128 128 57.312 128 128-57.312 128-128 128z" />
<glyph unicode="&#xe62b;" d="M928 960h-832c-17.664 0-32-14.336-32-32v-960c0-17.696 14.336-32 32-32h832c17.696 0 32 14.304 32 32v960c0 17.664-14.304 32-32 32zM160 64c-17.664 0-32 14.304-32 32s14.336 32 32 32 32-14.304 32-32-14.336-32-32-32zM160 192c-17.664 0-32 14.304-32 32s14.336 32 32 32 32-14.304 32-32-14.336-32-32-32zM160 320c-17.664 0-32 14.304-32 32s14.336 32 32 32 32-14.304 32-32-14.336-32-32-32zM160 448c-17.664 0-32 14.336-32 32s14.336 32 32 32 32-14.336 32-32-14.336-32-32-32zM160 576c-17.664 0-32 14.336-32 32s14.336 32 32 32 32-14.336 32-32-14.336-32-32-32zM160 704c-17.664 0-32 14.336-32 32s14.336 32 32 32 32-14.336 32-32-14.336-32-32-32zM160 832c-17.664 0-32 14.336-32 32s14.336 32 32 32 32-14.336 32-32-14.336-32-32-32zM768 32c0-17.696-14.304-32-32-32h-448c-17.664 0-32 14.304-32 32v320c0 17.696 14.336 32 32 32h448c17.696 0 32-14.304 32-32v-320zM768 480c0-17.664-14.304-32-32-32h-448c-17.664 0-32 14.336-32 32v384c0 17.664 14.336 32 32 32h448c17.696 0 32-14.336 32-32v-384zM864 64c-17.696 0-32 14.304-32 32s14.304 32 32 32 32-14.304 32-32-14.304-32-32-32zM864 192c-17.696 0-32 14.304-32 32s14.304 32 32 32 32-14.304 32-32-14.304-32-32-32zM864 320c-17.696 0-32 14.304-32 32s14.304 32 32 32 32-14.304 32-32-14.304-32-32-32zM864 448c-17.696 0-32 14.336-32 32s14.304 32 32 32 32-14.336 32-32-14.304-32-32-32zM864 576c-17.696 0-32 14.336-32 32s14.304 32 32 32 32-14.336 32-32-14.304-32-32-32zM864 704c-17.696 0-32 14.336-32 32s14.304 32 32 32 32-14.336 32-32-14.304-32-32-32zM864 832c-17.696 0-32 14.336-32 32s14.304 32 32 32 32-14.336 32-32-14.304-32-32-32z" />
<glyph unicode="&#xe62c;" d="M0-64v96c0 143.488 180.768 197.728 419.168 219.584-52.352 32.448-93.44 123.648-114.848 196.48-0.096 0-0.192-0.064-0.32-0.064-2.176 0-48 57.312-48 128 0 62.016-4.416 113.728 32.224 125.44-0.032 0.864-0.224 1.696-0.224 2.56 0 78.624 40.672 147.52 101.984 187.488 15.84 39.52 64.128 68.512 122.016 68.512s106.176-28.992 122.016-68.512c61.312-39.968 101.984-108.864 101.984-187.488 0-0.864-0.192-1.696-0.224-2.56 36.64-11.712 32.224-63.424 32.224-125.44 0-70.688-50.816-128-48-128-0.128 0-0.224 0.064-0.32 0.064-21.408-72.8-62.496-164.032-114.848-196.48 238.4-21.856 419.168-74.080 419.168-219.584v-96h-1024z" />
<glyph unicode="&#xe62d;" d="M981.188 799.892c-143.632 20.65-302.332 32.108-469.186 32.108-166.86 0-325.556-11.458-469.194-32.108-27.53-107.726-42.808-226.75-42.808-351.892 0-125.14 15.278-244.166 42.808-351.89 143.638-20.652 302.336-32.11 469.194-32.11 166.854 0 325.552 11.458 469.186 32.11 27.532 107.724 42.812 226.75 42.812 351.89 0 125.142-15.28 244.166-42.812 351.892zM384.002 256v384l320-192-320-192z" />
<glyph unicode="&#xe62e;" d="M771.516 640c18.126 12.88 35.512 27.216 51.444 43.148 33.402 33.402 55.746 74.5 62.912 115.722 7.858 45.186-3.672 87.14-31.63 115.1-22.3 22.298-52.51 34.086-87.364 34.086-49.632 0-101.922-23.824-143.46-65.362-66.476-66.476-105.226-158.238-126.076-223.722-15.44 65.802-46.206 154.644-106.018 214.458-32.094 32.092-73.114 48.57-111.846 48.57-31.654 0-61.78-11.004-84.26-33.486-49.986-49.988-43.232-137.786 15.086-196.104 20.792-20.792 45.098-38.062 70.72-52.412h-217.024v-256h64v-448h768v448.002h64v256h-188.484zM674.326 831.782c27.724 27.724 62.322 44.274 92.55 44.274 10.7 0 25.708-2.254 36.45-12.998 26.030-26.028 11.412-86.308-31.28-128.998-43.946-43.946-103.060-74.168-154.432-94.060h-50.672c18.568 57.548 52.058 136.456 107.384 191.782zM233.934 799.11c-0.702 9.12-0.050 26.248 12.196 38.494 10.244 10.244 23.788 12.396 33.348 12.396v0c21.258 0 43.468-10.016 60.932-27.48 33.872-33.872 61.766-87.772 80.668-155.876 0.51-1.84 1.008-3.67 1.496-5.486-1.816 0.486-3.646 0.984-5.486 1.496-68.104 18.904-122.002 46.798-155.874 80.67-15.828 15.826-25.77 36.16-27.28 55.786zM448 0h-256v416h256v-416zM448 448h-320v128h320v-128zM832 0h-256v416h256v-416zM896 448h-320v128h320v-128z" />
<glyph unicode="&#xe62f;" d="M253.44 234.666l271.146-264.96c7.68-7.68 18.348-12.372 30.080-12.372 23.466 0 42.666 19.008 42.666 42.24l0.002 896.852c0 23.254-19.2 42.24-42.668 42.24-11.968 0-22.826-4.906-30.528-12.8l-270.484-264.532h-168.32c-47.146 0-85.334-38.186-85.334-85.334v-256c0-47.146 38.186-85.334 85.334-85.334h168.106zM837.334 709.974c-20.48-20.266-20.48-53.334 0-73.814 50.774-50.986 82.326-121.174 82.326-198.826 0-77.674-31.766-147.84-82.538-198.826-20.502-20.48-20.502-53.546 0-73.814 20.246-20.48 53.334-20.48 73.814 0 69.758 69.76 113.064 166.186 113.064 272.64 0 106.24-42.88 202.454-112.426 272.214l-0.448 0.426c-20.46 20.48-53.312 20.48-73.792 0zM793.174 282.666c39.466 39.658 63.786 94.294 63.786 154.666s-24.342 114.986-63.786 154.666c-20.48 20.48-53.546 20.48-73.814 0-20.48-20.266-20.48-53.334 0-73.814 20.48-20.694 33.28-49.28 33.28-80.854s-12.8-60.16-33.28-80.854c-20.48-20.48-20.48-53.334 0-73.814 20.266-20.262 53.334-20.476 73.814 0.004z" />
<glyph unicode="&#xe630;" d="M76.8 614.298h870.4c29.184 0 24.422 31.13 9.882 36.198-14.541 5.069-176.282 66.202-204.442 66.202h-46.080v153.6h-389.12v-153.6h-46.080c-28.16 0-189.901-61.133-204.442-66.202s-19.354-36.198 9.882-36.198zM957.44 557.978h-890.88c-28.16 0-56.32-33.28-56.32-61.44v-179.2c0-28.16 28.16-61.44 56.32-61.44h101.478l-45.158-256h778.24l-45.158 256h101.478c28.16 0 56.32 33.28 56.32 61.44v179.2c0 28.16-28.16 61.44-56.32 61.44zM225.28 102.298l71.68 332.8h430.080l71.629-332.8h-573.389z" />
<glyph unicode="&#xe631;" d="M853.333 103.040v494.293l-256 256h-341.333c-47.147 0-84.907-38.187-84.907-85.333l-0.427-682.667c0-47.147 37.76-85.333 84.907-85.333h512.427c18.987 0 36.48 6.4 50.56 17.067l-189.227 189.227c-33.493-22.4-73.813-35.627-117.333-35.627-117.76 0-213.333 95.573-213.333 213.333s95.573 213.333 213.333 213.333 213.333-95.573 213.333-213.333c0-43.52-13.227-83.84-35.413-117.547l163.413-163.413zM384 384c0-70.613 57.387-128 128-128s128 57.387 128 128-57.387 128-128 128-128-57.387-128-128z" />
<glyph unicode="&#xe632;" d="M716.8 179.2v179.2h-665.6v204.8h665.6v179.2l268.8-281.6-268.8-281.6z" />
<glyph unicode="&#xe633;" d="M880.128 760.013c-85.606 78.592-224.41 78.592-310.016 0l-58.112-53.299-58.163 53.299c-85.606 78.592-224.358 78.592-309.965 0-96.307-88.371-96.307-231.373 0-319.744l368.128-337.869 368.128 337.869c96.256 88.371 96.256 231.424 0 319.744zM825.549 492.8l-313.549-292.608-313.6 292.608c-31.59 29.030-43.827 66.918-43.827 107.213s7.066 73.37 38.707 102.349c27.904 25.651 65.434 39.782 105.626 39.782 40.141 0 77.67-24.371 105.574-50.074l107.52-93.44 107.469 93.491c27.955 25.702 65.434 50.074 105.626 50.074s77.722-14.131 105.626-39.782c31.642-28.979 38.656-62.054 38.656-102.349s-12.186-78.234-43.827-107.264z" />
<glyph unicode="&#xe634;" d="M880.128 760.064c-85.606 78.541-224.41 78.541-310.016 0l-58.112-53.35-58.163 53.35c-85.606 78.541-224.358 78.541-309.965 0-96.307-88.422-96.307-231.424 0-319.795l368.128-337.869 368.128 337.869c96.256 88.371 96.256 231.424 0 319.795z" />
<glyph unicode="&#xe635;" d="M752.026 457.318c-14.029 4.301-23.706 7.27-16.333 26.010 15.923 40.806 17.613 75.981 0.358 101.12-32.41 47.104-121.037 44.595-222.618 1.28 0 0.102-31.898-14.182-23.757 11.622 15.667 51.046 13.261 93.85-11.059 118.528-55.091 56.218-201.574-2.099-327.27-129.997-94.157-95.795-148.787-197.274-148.787-285.082 0-167.987 211.558-280.32 418.56-280.32 271.309 0 451.84 170.701 451.84 298.086 0 77.056-63.693 120.73-120.934 138.752zM421.683 95.795c-165.12-16.384-307.763 58.726-318.464 167.68-10.701 109.005 114.483 210.688 279.654 227.226 165.171 16.384 307.763-58.675 318.464-167.68 10.701-109.107-114.483-210.842-279.654-227.226zM1021.44 594.074c-0.051 169.574-137.523 306.995-307.2 306.995-19.814 0-35.789-15.974-35.789-35.789s15.974-35.789 35.789-35.789c130.099 0 235.571-105.523 235.571-235.622 0-19.814 16.026-35.789 35.84-35.789s35.789 16.026 35.789 35.84v0.154zM879.053 599.296c-16.333 79.974-79.411 143.002-159.386 159.386-19.354 3.994-38.298-8.499-42.291-27.904-3.942-19.302 8.499-38.298 27.904-42.291 52.019-10.598 92.979-51.61 103.629-103.578 3.994-19.405 22.938-31.795 42.291-27.904 19.302 3.994 31.846 22.989 27.853 42.291zM336.998 383.898c-66.56-13.414-111.462-69.222-100.301-124.621 11.162-55.501 74.086-89.6 140.646-76.186 66.509 13.414 111.411 69.222 100.301 124.621-11.162 55.398-74.189 89.6-140.646 76.186z" />
<glyph unicode="&#xe636;" d="M870.4 921.6h-716.8c-56.32 0-102.4-46.080-102.4-102.4v-716.8c0-56.371 46.080-102.4 102.4-102.4h716.8c56.32 0 102.4 46.029 102.4 102.4v716.8c0 56.32-46.080 102.4-102.4 102.4zM511.181 178.022c156.621 0 283.546 127.027 283.546 283.597 0 17.306-2.202 33.997-5.274 50.381h80.947v-369.459c0-19.558-15.872-35.328-35.482-35.328h-645.837c-19.61 0-35.482 15.77-35.482 35.328v369.459h79.309c-3.123-16.384-5.325-33.075-5.325-50.381 0-156.621 127.027-283.597 283.597-283.597zM333.978 461.619c0 97.894 79.36 177.203 177.254 177.203 97.843 0 177.254-79.309 177.254-177.203s-79.411-177.254-177.254-177.254c-97.946 0-177.254 79.36-177.254 177.254zM834.918 665.6h-82.688c-19.558 0-35.43 15.974-35.43 35.43v82.79c0 19.558 15.872 35.379 35.379 35.379h82.688c19.661 0 35.533-15.821 35.533-35.379v-82.739c0-19.507-15.872-35.482-35.482-35.482z" />
<glyph unicode="&#xe637;" d="M898.304 180.838l-193.485 193.485c29.184 47.974 45.978 104.192 45.978 164.454 0 174.899-151.603 326.502-326.554 326.502-174.899 0-316.723-141.824-316.723-316.723 0-174.95 151.552-326.554 326.502-326.554 58.163 0 112.64 15.77 159.488 43.162l194.509-194.56c19.098-19.046 49.92-19.046 68.915 0l48.282 48.23c18.995 19.046 12.083 43.008-6.912 62.003zM205.005 548.557c0 121.088 98.15 219.29 219.238 219.29 121.139 0 229.069-107.93 229.069-229.069s-98.15-219.29-219.29-219.29-229.018 107.93-229.018 229.069z" />
<glyph unicode="&#xe638;" d="M563.2 128v179.2h-409.6v307.2h409.6v179.2l332.8-332.8-332.8-332.8z" />
<glyph unicode="&#xe639;" d="M576 512v448c265.088 0 448-182.912 448-448h-448zM480-64c-265.088 0-480 214.912-480 480 0 289.088 210.912 480 512 480v-448h448c0-265.088-214.912-512-480-512z" />
<glyph unicode="&#xe63c;" d="M512 960c-282.752 0-512-229.248-512-512s229.248-512 512-512 512 229.248 512 512-229.248 512-512 512zM768 384h-192v-192h-128v192h-192v128h192v192h128v-192h192v-128z" />
<glyph unicode="&#xe63d;" d="M736 896c-76.928 0-138.592-27.616-192.96-82.016-0.032-0.032-0.064-0.064-0.096-0.096h-0.032l-30.912-38.944-30.912 36.576c-0.032 0.032-0.064 0.064-0.096 0.096h-0.032c-54.4 54.432-116.032 84.384-192.96 84.384s-149.248-29.952-203.648-84.352c-54.368-54.4-84.352-126.72-84.352-203.648 0-76.864 29.92-149.184 84.256-203.552l382.304-385.504c12-12.128 28.384-18.944 45.44-18.944s33.44 6.816 45.44 18.944l382.272 385.504c54.336 54.368 84.288 126.656 84.288 203.552 0 76.928-29.984 149.248-84.352 203.648-54.4 54.4-126.72 84.352-203.648 84.352v0z" />
<glyph unicode="&#xe63e;" d="M575.87-64h-191.87v512h-128v176.45l128 0.058-0.208 103.952c0 143.952 39.034 231.54 208.598 231.54h141.176v-176.484h-88.23c-66.032 0-69.206-24.656-69.206-70.684l-0.262-88.324h158.69l-18.704-176.45-139.854-0.058-0.13-512z" />
<glyph unicode="&#xe63f;" d="M896 800h-768c-70.688 0-128-57.344-128-128v-416c0-70.688 57.312-128 128-128h768c70.688 0 128 57.312 128 128v416c0 70.656-57.312 128-128 128zM64 632l223.968-168-223.968-168v336zM960 256c0-35.328-28.736-64-64-64h-768c-35.296 0-64 28.672-64 64l250.624 188 139.776-104.864c17.056-12.736 37.312-19.2 57.6-19.2 20.256 0 40.512 6.432 57.568 19.2l139.808 104.864 250.624-188zM960 296l-224 168 224 168v-336zM550.368 364.736c-11.168-8.384-24.416-12.8-38.368-12.8s-27.232 4.448-38.4 12.8l-409.6 307.264c0 35.296 28.704 64 64 64h768c35.264 0 64-28.704 64-64l-409.632-307.264z" />
<glyph unicode="&#xe640;" d="M810.667 664.96l-60.373 60.373-238.293-238.293-238.293 238.293-60.373-60.373 238.293-238.293-238.293-238.293 60.373-60.373 238.293 238.293 238.293-238.293 60.373 60.373-238.293 238.293z" />
<glyph unicode="&#xe641;" d="M1024 448c-1.278 66.862-15.784 133.516-42.576 194.462-26.704 61-65.462 116.258-113.042 161.92-47.552 45.696-103.944 81.82-164.984 105.652-61.004 23.924-126.596 35.352-191.398 33.966-64.81-1.282-129.332-15.374-188.334-41.356-59.048-25.896-112.542-63.47-156.734-109.576-44.224-46.082-79.16-100.708-102.186-159.798-23.114-59.062-34.128-122.52-32.746-185.27 1.286-62.76 14.964-125.148 40.134-182.206 25.088-57.1 61.476-108.828 106.11-151.548 44.61-42.754 97.472-76.504 154.614-98.72 57.118-22.304 118.446-32.902 179.142-31.526 60.708 1.29 120.962 14.554 176.076 38.914 55.15 24.282 105.116 59.48 146.366 102.644 41.282 43.14 73.844 94.236 95.254 149.43 13.034 33.458 21.88 68.4 26.542 103.798 1.246-0.072 2.498-0.12 3.762-0.12 35.346 0 64 28.652 64 64 0 1.796-0.094 3.572-0.238 5.332h0.238zM922.306 278.052c-23.472-53.202-57.484-101.4-99.178-141.18-41.67-39.81-91-71.186-144.244-91.79-53.228-20.678-110.29-30.452-166.884-29.082-56.604 1.298-112.596 13.736-163.82 36.474-51.25 22.666-97.684 55.49-135.994 95.712-38.338 40.198-68.528 87.764-88.322 139.058-19.87 51.284-29.228 106.214-27.864 160.756 1.302 54.552 13.328 108.412 35.254 157.69 21.858 49.3 53.498 93.97 92.246 130.81 38.73 36.868 84.53 65.87 133.874 84.856 49.338 19.060 102.136 28.006 154.626 26.644 52.5-1.306 104.228-12.918 151.562-34.034 47.352-21.050 90.256-51.502 125.624-88.782 35.396-37.258 63.21-81.294 81.39-128.688 18.248-47.392 26.782-98.058 25.424-148.496h0.238c-0.144-1.76-0.238-3.536-0.238-5.332 0-33.012 24.992-60.174 57.086-63.624-6.224-34.822-16.53-68.818-30.78-100.992z" />
<glyph unicode="&#xe642;" d="M1024 576h-384l143.53 143.53c-72.53 72.526-168.96 112.47-271.53 112.47s-199-39.944-271.53-112.47c-72.526-72.53-112.47-168.96-112.47-271.53s39.944-199 112.47-271.53c72.53-72.526 168.96-112.47 271.53-112.47s199 39.944 271.528 112.472c6.056 6.054 11.86 12.292 17.456 18.668l96.32-84.282c-93.846-107.166-231.664-174.858-385.304-174.858-282.77 0-512 229.23-512 512s229.23 512 512 512c141.386 0 269.368-57.326 362.016-149.984l149.984 149.984v-384z" />
<glyph unicode="&#xe643;" d="M768 448h-384v-128c0-70.688 57.312-128 128-128h256c70.688 0 128-57.312 128-128s-57.312-128-128-128h-256c-212.064 0-384 171.936-384 384v512c0 70.688 57.312 128 128 128s128-57.312 128-128v-128h384c70.688 0 128-57.312 128-128s-57.312-128-128-128z" />
<glyph unicode="&#xe644;" d="M805.973 639.488c34.475 21.163 57.301 50.048 68.48 86.784-33.536-17.792-66.944-29.995-100.309-36.736-29.995 32.256-67.968 48.64-113.493 48.64-44.501 0-82.091-15.616-112.768-45.995-30.507-30.592-45.909-67.755-45.909-111.147 0-13.184 1.664-24.96 4.992-34.944-131.243 4.48-239.872 58.923-325.461 163.712-14.507-25.643-21.76-51.755-21.76-78.763 0-55.509 23.424-99.499 70.187-131.797-26.667 2.261-50.176 9.003-70.187 20.053 0-39.637 11.648-72.747 34.987-101.888 23.424-28.843 53.504-47.232 90.24-55.083-13.312-3.413-27.349-5.035-41.771-5.035-13.312 0-22.741 1.109-28.331 3.541 9.813-32.299 28.331-58.496 55.083-78.549 26.667-20.139 57.344-30.763 91.819-31.701-56.832-44.587-121.813-66.645-195.328-66.645-18.005 0-30.763 0.256-38.485 1.621 72.405-47.019 153.003-70.357 242.176-70.357 91.264 0 171.904 23.125 242.091 69.376 70.187 45.995 121.984 102.741 155.264 169.557 33.451 66.731 50.005 136.192 50.005 208.725v19.968c32.341 24.32 58.496 51.712 78.507 81.963-29.013-12.501-59.008-20.992-90.027-25.301z" />
<glyph unicode="&#xe645;" d="M919.936 711.766l-122.837 122.837c-12.501 12.501-28.885 18.731-45.269 18.731-16.427 0-32.768-6.229-45.269-18.731l-151.893-151.936h-384c-23.552 0-42.667-19.072-42.667-42.667v-554.667c0-23.595 19.115-42.667 42.667-42.667h554.667c23.552 0 42.667 19.072 42.667 42.667v384l151.936 151.936c12.501 12.501 18.731 28.885 18.731 45.269s-6.229 32.725-18.731 45.227zM490.667 312.662l-92.672 92.672 268.501 268.501 92.672-92.672-268.501-268.501zM381.397 369.792l74.923-73.728-72.32 2.603-2.603 71.125zM682.667 128h-469.333v469.333h256l-135.68-135.68c-12.501-12.501-20.395-34.645-26.837-54.997-6.827-21.333-8.149-45.056-8.149-62.72v-130.603h130.603c17.664 0 47.275 4.267 67.029 12.373 19.797 8.107 38.229 14.805 50.688 27.307l135.68 130.987v-256zM789.333 611.328l-92.672 92.672 55.168 55.168 92.629-92.672-55.125-55.168z" />
<glyph unicode="&#xe646;" d="M512 960c-282.752 0-512-229.248-512-512s229.248-512 512-512 512 229.248 512 512-229.248 512-512 512zM320 192v512l512.256-256-512.256-256z" />
<glyph unicode="&#xe647;" d="M778.189 512h-215.040v215.040c0 28.262-22.886 30.72-51.2 30.72-28.262 0-51.2-2.406-51.2-30.72v-215.040h-214.989c-28.314 0-30.72-22.938-30.72-51.2s2.406-51.2 30.72-51.2h214.989v-215.040c0-28.262 22.938-30.72 51.2-30.72 28.314 0 51.2 2.458 51.2 30.72v215.040h215.040c28.314 0 30.771 22.938 30.771 51.2s-2.458 51.2-30.771 51.2z" />
<glyph unicode="&#xe648;" d="M512 960c-282.752 0-512-229.248-512-512s229.248-512 512-512 512 229.248 512 512-229.248 512-512 512zM768 384h-512v128h512v-128z" />
<glyph unicode="&#xe95f;" d="M832 896h-640l-192-192v-672c0-17.674 14.326-32 32-32h960c17.672 0 32 14.326 32 32v672l-192 192zM640 320v-192h-256v192h-192l320 256 320-256h-192zM154.51 768l64 64h586.976l64-64h-714.976z" />
<glyph unicode="&#xe98d;" d="M704 960c-176.73 0-320-143.268-320-320 0-20.026 1.858-39.616 5.376-58.624l-389.376-389.376v-192c0-35.346 28.654-64 64-64h64v64h128v128h128v128h128l83.042 83.042c34.010-12.316 70.696-19.042 108.958-19.042 176.73 0 320 143.268 320 320s-143.27 320-320 320zM799.874 639.874c-53.020 0-96 42.98-96 96s42.98 96 96 96 96-42.98 96-96-42.98-96-96-96z" />
<glyph unicode="&#xe9c6;" d="M0 64h1024v-64h-1024zM1024 192v-64h-1024v64l128 256h256v-128h256v128h256zM224 640l288 288 288-288h-224v-256h-128v256z" />
<glyph unicode="&#xe9ca;" d="M512 960c-282.77 0-512-229.23-512-512s229.23-512 512-512 512 229.23 512 512-229.23 512-512 512zM512-0.002c-62.958 0-122.872 13.012-177.23 36.452l233.148 262.29c5.206 5.858 8.082 13.422 8.082 21.26v96c0 17.674-14.326 32-32 32-112.99 0-232.204 117.462-233.374 118.626-6 6.002-14.14 9.374-22.626 9.374h-128c-17.672 0-32-14.328-32-32v-192c0-12.122 6.848-23.202 17.69-28.622l110.31-55.156v-187.886c-116.052 80.956-192 215.432-192 367.664 0 68.714 15.49 133.806 43.138 192h116.862c8.488 0 16.626 3.372 22.628 9.372l128 128c6 6.002 9.372 14.14 9.372 22.628v77.412c40.562 12.074 83.518 18.588 128 18.588 70.406 0 137.004-16.26 196.282-45.2-4.144-3.502-8.176-7.164-12.046-11.036-36.266-36.264-56.236-84.478-56.236-135.764s19.97-99.5 56.236-135.764c36.434-36.432 85.218-56.264 135.634-56.26 3.166 0 6.342 0.080 9.518 0.236 13.814-51.802 38.752-186.656-8.404-372.334-0.444-1.744-0.696-3.488-0.842-5.224-81.324-83.080-194.7-134.656-320.142-134.656z" />
<glyph unicode="&#xf00a;" d="M292.571 237.714v-109.714q0-22.857-16-38.857t-38.857-16h-182.857q-22.857 0-38.857 16t-16 38.857v109.714q0 22.857 16 38.857t38.857 16h182.857q22.857 0 38.857-16t16-38.857zM292.571 530.286v-109.714q0-22.857-16-38.857t-38.857-16h-182.857q-22.857 0-38.857 16t-16 38.857v109.714q0 22.857 16 38.857t38.857 16h182.857q22.857 0 38.857-16t16-38.857zM658.286 237.714v-109.714q0-22.857-16-38.857t-38.857-16h-182.857q-22.857 0-38.857 16t-16 38.857v109.714q0 22.857 16 38.857t38.857 16h182.857q22.857 0 38.857-16t16-38.857zM292.571 822.857v-109.714q0-22.857-16-38.857t-38.857-16h-182.857q-22.857 0-38.857 16t-16 38.857v109.714q0 22.857 16 38.857t38.857 16h182.857q22.857 0 38.857-16t16-38.857zM658.286 530.286v-109.714q0-22.857-16-38.857t-38.857-16h-182.857q-22.857 0-38.857 16t-16 38.857v109.714q0 22.857 16 38.857t38.857 16h182.857q22.857 0 38.857-16t16-38.857zM1024 237.714v-109.714q0-22.857-16-38.857t-38.857-16h-182.857q-22.857 0-38.857 16t-16 38.857v109.714q0 22.857 16 38.857t38.857 16h182.857q22.857 0 38.857-16t16-38.857zM658.286 822.857v-109.714q0-22.857-16-38.857t-38.857-16h-182.857q-22.857 0-38.857 16t-16 38.857v109.714q0 22.857 16 38.857t38.857 16h182.857q22.857 0 38.857-16t16-38.857zM1024 530.286v-109.714q0-22.857-16-38.857t-38.857-16h-182.857q-22.857 0-38.857 16t-16 38.857v109.714q0 22.857 16 38.857t38.857 16h182.857q22.857 0 38.857-16t16-38.857zM1024 822.857v-109.714q0-22.857-16-38.857t-38.857-16h-182.857q-22.857 0-38.857 16t-16 38.857v109.714q0 22.857 16 38.857t38.857 16h182.857q22.857 0 38.857-16t16-38.857z" />
<glyph unicode="&#xf00b;" d="M292.571 237.714v-109.714q0-22.857-16-38.857t-38.857-16h-182.857q-22.857 0-38.857 16t-16 38.857v109.714q0 22.857 16 38.857t38.857 16h182.857q22.857 0 38.857-16t16-38.857zM292.571 530.286v-109.714q0-22.857-16-38.857t-38.857-16h-182.857q-22.857 0-38.857 16t-16 38.857v109.714q0 22.857 16 38.857t38.857 16h182.857q22.857 0 38.857-16t16-38.857zM1024 237.714v-109.714q0-22.857-16-38.857t-38.857-16h-548.571q-22.857 0-38.857 16t-16 38.857v109.714q0 22.857 16 38.857t38.857 16h548.571q22.857 0 38.857-16t16-38.857zM292.571 822.857v-109.714q0-22.857-16-38.857t-38.857-16h-182.857q-22.857 0-38.857 16t-16 38.857v109.714q0 22.857 16 38.857t38.857 16h182.857q22.857 0 38.857-16t16-38.857zM1024 530.286v-109.714q0-22.857-16-38.857t-38.857-16h-548.571q-22.857 0-38.857 16t-16 38.857v109.714q0 22.857 16 38.857t38.857 16h548.571q22.857 0 38.857-16t16-38.857zM1024 822.857v-109.714q0-22.857-16-38.857t-38.857-16h-548.571q-22.857 0-38.857 16t-16 38.857v109.714q0 22.857 16 38.857t38.857 16h548.571q22.857 0 38.857-16t16-38.857z" />
<glyph unicode="&#xf058;" d="M704 896l-128-128 192-192 128 128-192 192zM0 192l0.688-192.562 191.312 0.562 512 512-192 192-512-512zM192 64h-128v128h64v-64h64v-64z" horiz-adv-x="896" />
<glyph unicode="&#xf061;" d="M0 384h128v128h-128v-128zM0 640h128v128h-128v-128zM0 128h128v128h-128v-128zM256 384h512v128h-512v-128zM256 640h512v128h-512v-128zM256 128h512v128h-512v-128z" horiz-adv-x="768" />
<glyph unicode="&#xf071;" d="M384 448l-256 192v-128h-128v-128h128v-128l256 192z" horiz-adv-x="384" />
<glyph unicode="&#xf08d;" d="M192 384l64-384h192v320h128v-320h192l64 384-320 320-320-320zM832 576v256h-128l0.312-128.312-192.312 192.312-512-512h128l384 384 384-384h128l-192 192z" />
<glyph unicode="&#xf09f;" d="M192 640l-192-256h128v-128h128v128h128l-192 256z" horiz-adv-x="384" />
<glyph unicode="&#xf0a0;" d="M256 512v128h-128v-128h-128l192-256 192 256h-128z" horiz-adv-x="384" />
<glyph unicode="&#xf0a1;" d="M256 512v128l-256-192 256-192v128h128v128h-128z" horiz-adv-x="384" />
<glyph unicode="&#xf0c9;" d="M0 109.714v73.143q0 14.857 10.857 25.714t25.714 10.857h804.571q14.857 0 25.714-10.857t10.857-25.714v-73.143q0-14.857-10.857-25.714t-25.714-10.857h-804.571q-14.857 0-25.714 10.857t-10.857 25.714zM0 402.286v73.143q0 14.857 10.857 25.714t25.714 10.857h804.571q14.857 0 25.714-10.857t10.857-25.714v-73.143q0-14.857-10.857-25.714t-25.714-10.857h-804.571q-14.857 0-25.714 10.857t-10.857 25.714zM0 694.857v73.143q0 14.857 10.857 25.714t25.714 10.857h804.571q14.857 0 25.714-10.857t10.857-25.714v-73.143q0-14.857-10.857-25.714t-25.714-10.857h-804.571q-14.857 0-25.714 10.857t-10.857 25.714z" />
<glyph unicode="&#xf0d0;" d="M704 832h-256c0 0 0 24.057 0 32 0 17.673-14.327 32-32 32s-32-14.327-32-32c0-17.673 0-32 0-32h-256c-35.346 0-64-28.654-64-64v-64c0-35.346 28.654-64 64-64v-576c0-35.346 28.654-64 64-64h448c35.346 0 64 28.654 64 64v576c35.346 0 64 28.654 64 64v64c0 35.346-28.654 64-64 64zM640 96c0-17.673-14.327-32-32-32h-384c-17.673 0-32 14.327-32 32v544h64v-480c0-17.673 14.327-32 32-32s32 14.327 32 32l0.387 480h63.613v-480c0-17.673 14.327-32 32-32s32 14.327 32 32l0.387 480h64l-0.387-480c0-17.673 14.327-32 32-32s32 14.327 32 32v480h64v-544zM704 720c0-8.837-7.163-16-16-16h-544c-8.837 0-16 7.163-16 16v32c0 8.837 7.163 16 16 16h544c8.837 0 16-7.163 16-16v-32z" horiz-adv-x="768" />
<glyph unicode="&#xf100;" d="M358.286 164.571q0-7.429-5.714-13.143l-28.571-28.571q-5.714-5.714-13.143-5.714t-13.143 5.714l-266.286 266.286q-5.714 5.714-5.714 13.143t5.714 13.143l266.286 266.286q5.714 5.714 13.143 5.714t13.143-5.714l28.571-28.571q5.714-5.714 5.714-13.143t-5.714-13.143l-224.571-224.571 224.571-224.571q5.714-5.714 5.714-13.143zM577.714 164.571q0-7.429-5.714-13.143l-28.571-28.571q-5.714-5.714-13.143-5.714t-13.143 5.714l-266.286 266.286q-5.714 5.714-5.714 13.143t5.714 13.143l266.286 266.286q5.714 5.714 13.143 5.714t13.143-5.714l28.571-28.571q5.714-5.714 5.714-13.143t-5.714-13.143l-224.571-224.571 224.571-224.571q5.714-5.714 5.714-13.143z" horiz-adv-x="585" />
<glyph unicode="&#xf101;" d="M340 402.286q0-7.429-5.714-13.143l-266.286-266.286q-5.714-5.714-13.143-5.714t-13.143 5.714l-28.571 28.571q-5.714 5.714-5.714 13.143t5.714 13.143l224.571 224.571-224.571 224.571q-5.714 5.714-5.714 13.143t5.714 13.143l28.571 28.571q5.714 5.714 13.143 5.714t13.143-5.714l266.286-266.286q5.714-5.714 5.714-13.143zM559.429 402.286q0-7.429-5.714-13.143l-266.286-266.286q-5.714-5.714-13.143-5.714t-13.143 5.714l-28.571 28.571q-5.714 5.714-5.714 13.143t5.714 13.143l224.571 224.571-224.571 224.571q-5.714 5.714-5.714 13.143t5.714 13.143l28.571 28.571q5.714 5.714 13.143 5.714t13.143-5.714l266.286-266.286q5.714-5.714 5.714-13.143z" horiz-adv-x="585" />
<glyph unicode="&#xf102;" d="M614.286 201.143q0-7.429-5.714-13.143l-28.571-28.571q-5.714-5.714-13.143-5.714t-13.143 5.714l-224.571 224.571-224.571-224.571q-5.714-5.714-13.143-5.714t-13.143 5.714l-28.571 28.571q-5.714 5.714-5.714 13.143t5.714 13.143l266.286 266.286q5.714 5.714 13.143 5.714t13.143-5.714l266.286-266.286q5.714-5.714 5.714-13.143zM614.286 420.571q0-7.429-5.714-13.143l-28.571-28.571q-5.714-5.714-13.143-5.714t-13.143 5.714l-224.571 224.571-224.571-224.571q-5.714-5.714-13.143-5.714t-13.143 5.714l-28.571 28.571q-5.714 5.714-5.714 13.143t5.714 13.143l266.286 266.286q5.714 5.714 13.143 5.714t13.143-5.714l266.286-266.286q5.714-5.714 5.714-13.143z" horiz-adv-x="658" />
<glyph unicode="&#xf103;" d="M614.286 457.143q0-7.429-5.714-13.143l-266.286-266.286q-5.714-5.714-13.143-5.714t-13.143 5.714l-266.286 266.286q-5.714 5.714-5.714 13.143t5.714 13.143l28.571 28.571q5.714 5.714 13.143 5.714t13.143-5.714l224.571-224.571 224.571 224.571q5.714 5.714 13.143 5.714t13.143-5.714l28.571-28.571q5.714-5.714 5.714-13.143zM614.286 676.571q0-7.429-5.714-13.143l-266.286-266.286q-5.714-5.714-13.143-5.714t-13.143 5.714l-266.286 266.286q-5.714 5.714-5.714 13.143t5.714 13.143l28.571 28.571q5.714 5.714 13.143 5.714t13.143-5.714l224.571-224.571 224.571 224.571q5.714 5.714 13.143 5.714t13.143-5.714l28.571-28.571q5.714-5.714 5.714-13.143z" horiz-adv-x="658" />
<glyph unicode="&#xf167;" d="M554.857 240v-120.571q0-38.286-22.286-38.286-13.143 0-25.714 12.571v172q12.571 12.571 25.714 12.571 22.286 0 22.286-38.286zM748 239.428v-26.286h-51.429v26.286q0 38.857 25.714 38.857t25.714-38.857zM196 364h61.143v53.714h-178.286v-53.714h60v-325.143h57.143v325.143zM360.571 38.857h50.857v282.286h-50.857v-216q-17.143-24-32.571-24-10.286 0-12 12-0.571 1.714-0.571 20v208h-50.857v-223.429q0-28 4.571-41.714 6.857-21.143 33.143-21.143 27.429 0 58.286 34.857v-30.857zM605.714 123.428v112.571q0 41.714-5.143 56.571-9.714 32-40.571 32-28.571 0-53.143-30.857v124h-50.857v-378.857h50.857v27.429q25.714-31.429 53.143-31.429 30.857 0 40.571 31.429 5.143 15.429 5.143 57.143zM798.857 129.143v7.429h-52q0-29.143-1.143-34.857-4-20.571-22.857-20.571-26.286 0-26.286 39.429v49.714h102.286v58.857q0 45.143-15.429 66.286-22.286 29.143-60.571 29.143-38.857 0-61.143-29.143-16-21.143-16-66.286v-98.857q0-45.143 16.571-66.286 22.286-29.143 61.714-29.143 41.143 0 61.714 30.286 10.286 15.429 12 30.857 1.143 5.143 1.143 33.143zM451.429 650.857v120q0 39.429-24.571 39.429t-24.571-39.429v-120q0-40 24.571-40t24.571 40zM862.286 221.714q0-133.714-14.857-200-8-33.714-33.143-56.571t-58.286-26.286q-105.143-12-317.143-12t-317.143 12q-33.143 3.429-58.571 26.286t-32.857 56.571q-14.857 64-14.857 200 0 133.714 14.857 200 8 33.714 33.143 56.571t58.857 26.857q104.571 11.429 316.571 11.429t317.143-11.429q33.143-4 58.571-26.857t32.857-56.571q14.857-64 14.857-200zM292 950.857h58.286l-69.143-228v-154.857h-57.143v154.857q-8 42.286-34.857 121.143-21.143 58.857-37.143 106.857h60.571l40.571-150.286zM503.429 760.571v-100q0-46.286-16-67.429-21.143-29.143-60.571-29.143-38.286 0-60 29.143-16 21.714-16 67.429v100q0 45.714 16 66.857 21.714 29.143 60 29.143 39.429 0 60.571-29.143 16-21.143 16-66.857zM694.857 853.143v-285.143h-52v31.429q-30.286-35.429-58.857-35.429-26.286 0-33.714 21.143-4.571 13.714-4.571 42.857v225.143h52v-209.714q0-18.857 0.571-20 1.714-12.571 12-12.571 15.429 0 32.571 24.571v217.714h52z" />
<glyph unicode="&#xf1f8;" d="M292.571 164.571v402.286q0 8-5.143 13.143t-13.143 5.143h-36.571q-8 0-13.143-5.143t-5.143-13.143v-402.286q0-8 5.143-13.143t13.143-5.143h36.571q8 0 13.143 5.143t5.143 13.143zM438.857 164.571v402.286q0 8-5.143 13.143t-13.143 5.143h-36.571q-8 0-13.143-5.143t-5.143-13.143v-402.286q0-8 5.143-13.143t13.143-5.143h36.571q8 0 13.143 5.143t5.143 13.143zM585.143 164.571v402.286q0 8-5.143 13.143t-13.143 5.143h-36.571q-8 0-13.143-5.143t-5.143-13.143v-402.286q0-8 5.143-13.143t13.143-5.143h36.571q8 0 13.143 5.143t5.143 13.143zM274.286 731.428h256l-27.429 66.857q-4 5.143-9.714 6.286h-181.143q-5.714-1.143-9.714-6.286zM804.571 713.143v-36.571q0-8-5.143-13.143t-13.143-5.143h-54.857v-541.714q0-47.429-26.857-82t-64.571-34.571h-475.429q-37.714 0-64.571 33.429t-26.857 80.857v544h-54.857q-8 0-13.143 5.143t-5.143 13.143v36.571q0 8 5.143 13.143t13.143 5.143h176.571l40 95.429q8.571 21.143 30.857 36t45.143 14.857h182.857q22.857 0 45.143-14.857t30.857-36l40-95.429h176.571q8 0 13.143-5.143t5.143-13.143z" horiz-adv-x="805" />
</font></defs></svg>